…
## Creating tables of abundance and basal area

``` r
vft <- fgeo.data::luquillo_vft_4quad
one_stem_per_treeid <- vft %>% pick_largest_hom_dbh()

# Trees
(trees <- one_stem_per_treeid %>% pick_trees())
#> # A tibble: 532 x 32
#>     DBHID PlotName PlotID Family Genus SpeciesName Mnemonic Subspecies
#>     <int> <chr>     <int> <chr>  <chr> <chr>       <chr>    <chr>     
#>  1 353174 luquillo      1 Morac~ Ficus spp         FICSPP   <NA>      
#>  2 352708 luquillo      1 Areca~ Roys~ borinquena  ROYBOR   <NA>      
#>  3 352717 luquillo      1 Fabac~ Inga  laurina     INGLAU   <NA>      
#>  4 353153 luquillo      1 Fabac~ Inga  laurina     INGLAU   <NA>      
#>  5 384554 luquillo      1 Urtic~ Cecr~ schreberia~ CECSCH   <NA>      
#>  6 395112 luquillo      1 Urtic~ Cecr~ schreberia~ CECSCH   <NA>      
#>  7 352695 luquillo      1 Urtic~ Cecr~ schreberia~ CECSCH   <NA>      
#>  8 388056 luquillo      1 Urtic~ Cecr~ schreberia~ CECSCH   <NA>      
#>  9 385118 luquillo      1 Urtic~ Cecr~ schreberia~ CECSCH   <NA>      
#> 10 352690 luquillo      1 Salic~ Laet~ procera     LAEPRO   <NA>      
#> # ... with 522 more rows, and 24 more variables: SpeciesID <int>,
#> #   SubspeciesID <chr>, QuadratName <chr>, QuadratID <int>, PX <dbl>,
#> #   PY <dbl>, QX <dbl>, QY <dbl>, TreeID <int>, Tag <chr>, StemID <int>,
#> #   StemNumber <int>, StemTag <int>, PrimaryStem <chr>, CensusID <int>,
#> #   PlotCensusNumber <int>, DBH <dbl>, HOM <dbl>, ExactDate <date>,
#> #   Date <int>, ListOfTSM <chr>, HighHOM <int>, LargeStem <chr>,
#> #   Status <chr>

trees %>% abundance_byyr()
#> Warning: No observation has .status = dead
#>   * Detected values: alive

#> Warning: No observation has .status = dead
#>   * Detected values: alive
#> # A tibble: 23 x 5
#>    species                  Family         `2006` `2012` `2016`
#>    <chr>                    <chr>           <dbl>  <dbl>  <dbl>
#>  1 Alchornea latifolia      Euphorbiaceae       2      1      1
#>  2 Alchorneopsis floribunda Euphorbiaceae       2      4      4
#>  3 Buchenavia tetraphylla   Combretaceae        0      1      1
#>  4 Casearia arborea         Salicaceae         12     15     18
#>  5 Cecropia schreberiana    Urticaceae         59     45     19
#>  6 Cordia sulcata           Boraginaceae        2      2      2
#>  7 Dacryodes excelsa        Burseraceae         1      1      1
#>  8 Drypetes glauca          Putranjivaceae      1      1      1
#>  9 Ficus spp                Moraceae            1      1      1
#> 10 Guarea guidonia          Meliaceae           1      2      2
#> # ... with 13 more rows

trees %>% basal_area_byyr()
#> Warning: No observation has .status = dead
#>   * Detected values: alive

#> Warning: No observation has .status = dead
#>   * Detected values: alive
#> # A tibble: 23 x 5
#>    species                  Family           `2006`   `2012`  `2016`
#>    <chr>                    <chr>             <dbl>    <dbl>   <dbl>
#>  1 Alchornea latifolia      Euphorbiaceae    40718.   25447.  29559.
#>  2 Alchorneopsis floribunda Euphorbiaceae    27587.   99340. 174959.
#>  3 Buchenavia tetraphylla   Combretaceae         0     9161.  11310.
#>  4 Casearia arborea         Salicaceae      168141.  235160. 302074.
#>  5 Cecropia schreberiana    Urticaceae     2099660. 1737494. 977482.
#>  6 Cordia sulcata           Boraginaceae     37443.   39296.  42016.
#>  7 Dacryodes excelsa        Burseraceae      22432.   44863.  59396.
#>  8 Drypetes glauca          Putranjivaceae   10936.   11310.  11310.
#>  9 Ficus spp                Moraceae        223123.  209117. 229871.
#> 10 Guarea guidonia          Meliaceae        14957.   43832.  55428.
#> # ... with 13 more rows

# Saplings
(saplings <- one_stem_per_treeid %>% pick_saplings())
#> # A tibble: 1,009 x 32
#>     DBHID PlotName PlotID Family Genus SpeciesName Mnemonic Subspecies
#>     <int> <chr>     <int> <chr>  <chr> <chr>       <chr>    <chr>     
#>  1 385121 luquillo      1 Arali~ Sche~ morototoni  SCHMOR   <NA>      
#>  2 388199 luquillo      1 Urtic~ Cecr~ schreberia~ CECSCH   <NA>      
#>  3 422483 luquillo      1 Areca~ Pres~ acuminata   PREMON   <NA>      
#>  4 423334 luquillo      1 Areca~ Pres~ acuminata   PREMON   <NA>      
#>  5 388416 luquillo      1 Combr~ Buch~ tetraphylla BUCTET   <NA>      
#>  6 423335 luquillo      1 Areca~ Pres~ acuminata   PREMON   <NA>      
#>  7 384613 luquillo      1 Arali~ Sche~ morototoni  SCHMOR   <NA>      
#>  8 388515 luquillo      1 Salic~ Case~ arborea     CASARB   <NA>      
#>  9 388591 luquillo      1 Salic~ Case~ arborea     CASARB   <NA>      
#> 10 385127 luquillo      1 Arali~ Sche~ morototoni  SCHMOR   <NA>      
#> # ... with 999 more rows, and 24 more variables: SpeciesID <int>,
#> #   SubspeciesID <chr>, QuadratName <chr>, QuadratID <int>, PX <dbl>,
#> #   PY <dbl>, QX <dbl>, QY <dbl>, TreeID <int>, Tag <chr>, StemID <int>,
#> #   StemNumber <int>, StemTag <int>, PrimaryStem <chr>, CensusID <int>,
#> #   PlotCensusNumber <int>, DBH <dbl>, HOM <dbl>, ExactDate <date>,
#> #   Date <int>, ListOfTSM <chr>, HighHOM <int>, LargeStem <chr>,
#> #   Status <chr>

saplings %>% abundance_byyr()
#> Warning: No observation has .status = dead
#>   * Detected values: alive

#> Warning: No observation has .status = dead
#>   * Detected values: alive
#> # A tibble: 42 x 5
#>    species                  Family        `2006` `2012` `2016`
#>    <chr>                    <chr>          <dbl>  <dbl>  <dbl>
#>  1 Alchornea latifolia      Euphorbiaceae      3      1      0
#>  2 Alchorneopsis floribunda Euphorbiaceae      4      0      0
#>  3 Buchenavia tetraphylla   Combretaceae       2      1      1
#>  4 Byrsonima spicata        Malpighiaceae      3      3      2
#>  5 Casearia arborea         Salicaceae        92     86     87
#>  6 Casearia sylvestris      Salicaceae        13      8      6
#>  7 Cecropia schreberiana    Urticaceae         4      0      0
#>  8 Chionanthus domingensis  Oleaceae           0      0      1
#>  9 Cordia borinquensis      Boraginaceae       8      6      7
#> 10 Dacryodes excelsa        Burseraceae        1      1      1
#> # ... with 32 more rows

saplings %>% basal_area_byyr()
#> Warning: No observation has .status = dead
#>   * Detected values: alive

#> Warning: No observation has .status = dead
#>   * Detected values: alive
#> # A tibble: 42 x 5
#>    species                  Family         `2006`  `2012`  `2016`
#>    <chr>                    <chr>           <dbl>   <dbl>   <dbl>
#>  1 Alchornea latifolia      Euphorbiaceae   3071.    460.      0 
#>  2 Alchorneopsis floribunda Euphorbiaceae  10647.      0       0 
#>  3 Buchenavia tetraphylla   Combretaceae    8258.   1320.   1340.
#>  4 Byrsonima spicata        Malpighiaceae   4449.   6367.   5166.
#>  5 Casearia arborea         Salicaceae    108017. 127258. 146016.
#>  6 Casearia sylvestris      Salicaceae     11386.  10387.   8344.
#>  7 Cecropia schreberiana    Urticaceae     17836.      0       0 
#>  8 Chionanthus domingensis  Oleaceae           0       0     115.
#>  9 Cordia borinquensis      Boraginaceae   16577.  11214.  11640.
#> 10 Dacryodes excelsa        Burseraceae     2124.   2376.   3217.
#> # ... with 32 more rows
```
…
