…
stem <- fgeo.data::luquillo_stem_random_tiny
```

``` r
pick <- keep_dbh_min(stem, 10)
pick <- drop_status(pick, "G")
# Same
pick <- stem %>% 
  keep_dbh_min(10) %>% 
  drop_status("G")

pick
#> # A tibble: 67 x 19
#>    treeID stemID tag   StemTag sp     quadrat    gx    gy MeasureID
#>     <int>  <int> <chr> <chr>   <chr>  <chr>   <dbl> <dbl>     <int>
#>  1  10775  13496 1128  1128    PREMON 402      79.3  39.8     13496
#>  2  10863  13603 1129  1129    PREMON 402      79.0  36.5     13603
#>  3  23710  29640 14434 14434   PREMON 517      82.7 330.      29640
#>  4  25331  31937 16164 16164   SLOBER 402      70.8  21.0     31937
#>  5  63997  77760 75062 75062   CASARB 517      86.0 340.      77760
#>  6  63997  77761 75062 75063   CASARB 517      86.0 340.      77761
#>  7  63997  77762 75062 75064   CASARB 517      86.0 340.      77762
#>  8  63997  77763 75062 75065   CASARB 517      86.0 340.      77763
#>  9  63997  77764 75062 75066   CASARB 517      86.0 340.      77764
#> 10  64070  77850 75147 75147   CASARB 517      99.8 325.      77850
#> # ... with 57 more rows, and 10 more variables: CensusID <int>, dbh <dbl>,
#> #   pom <chr>, hom <dbl>, ExactDate <dbl>, DFstatus <chr>, codes <chr>,
#> #   countPOM <dbl>, status <chr>, date <dbl>
```

### Basal area

``` r
# Add basal area to a dataframe
ba <- basal_area(pick$dbh)
pick$ba <- ba
# Same in one step
pick <- mutate(pick, ba = basal_area(dbh))
# Reordering columns to show `ba` first
select(pick, ba, everything())
#> # A tibble: 67 x 20
#>        ba treeID stemID tag   StemTag sp     quadrat    gx    gy MeasureID
#>     <dbl>  <int>  <int> <chr> <chr>   <chr>  <chr>   <dbl> <dbl>     <int>
#>  1 18869.  10775  13496 1128  1128    PREMON 402      79.3  39.8     13496
#>  2 22167.  10863  13603 1129  1129    PREMON 402      79.0  36.5     13603
#>  3 10936.  23710  29640 14434 14434   PREMON 517      82.7 330.      29640
#>  4  1995.  25331  31937 16164 16164   SLOBER 402      70.8  21.0     31937
#>  5  2043.  63997  77760 75062 75062   CASARB 517      86.0 340.      77760
#>  6   254.  63997  77761 75062 75063   CASARB 517      86.0 340.      77761
#>  7   314.  63997  77762 75062 75064   CASARB 517      86.0 340.      77762
#>  8   398.  63997  77763 75062 75065   CASARB 517      86.0 340.      77763
#>  9   594.  63997  77764 75062 75066   CASARB 517      86.0 340.      77764
#> 10   113.  64070  77850 75147 75147   CASARB 517      99.8 325.      77850
#> # ... with 57 more rows, and 10 more variables: CensusID <int>, dbh <dbl>,
#> #   pom <chr>, hom <dbl>, ExactDate <dbl>, DFstatus <chr>, codes <chr>,
#> #   countPOM <dbl>, status <chr>, date <dbl>
…
# add_count() is useful for groupwise filtering. E.g.: to keep all data from
# species which abundance per quadrat is under some treshold
with_abundance <- add_count(pick, quadrat, sp)
under_treshold <- filter(with_abundance, n < 20)
select(under_treshold, quadrat, sp, n, everything())
#> # A tibble: 45 x 21
#>    quadrat sp         n treeID stemID tag   StemTag    gx    gy MeasureID
#>    <chr>   <chr>  <int>  <int>  <int> <chr> <chr>   <dbl> <dbl>     <int>
#>  1 402     PREMON    16  10775  13496 1128  1128     79.3  39.8     13496
#>  2 402     PREMON    16  10863  13603 1129  1129     79.0  36.5     13603
#>  3 517     PREMON    13  23710  29640 14434 14434    82.7 330.      29640
#>  4 402     SLOBER    16  25331  31937 16164 16164    70.8  21.0     31937
#>  5 402     SLOBER    16  69235  84589 8166  8166     65.8  20.8     84589
#>  6 402     PREMON    16  10775  13496 1128  1128     79.3  39.8    116871
#>  7 402     PREMON    16  10863  13603 1129  1129     79.0  36.5    116978
#>  8 517     PREMON    13  23710  29640 14434 14434    82.7 330.     133014
#>  9 402     SLOBER    16  25331  31937 16164 16164    70.8  21.0    135311
#> 10 402     SLOBER    16  69235  84589 8166  8166     65.8  20.8    187959
#> # ... with 35 more rows, and 11 more variables: CensusID <int>, dbh <dbl>,
#> #   pom <chr>, hom <dbl>, ExactDate <dbl>, DFstatus <chr>, codes <chr>,
#> #   countPOM <dbl>, status <chr>, date <dbl>, ba <dbl>
```
…
