Review of milestone 1 (issue 41) • forestr
…
all.equal(with_dplyr, with_base)
#> [1] TRUE

Meeting Gabriel

Gabriel proposes to write one single function like thisÑ

abundance(x, group_by = c("sp", "status"), only_alive = TRUE)

The output should look similar to this:

count_status(x, .status = unique(x$status), sp, status) %>% 
  filter(status == "A")
#> # A tibble: 111 x 3
#>       sp status     n
#>    <chr>  <chr> <dbl>
#> 1 apeime      A     2
#> 2 quaras      A     8
#> 3 beilpe      A     6
#> 4 luehse      A     2
#> 5 simaam      A     6
#> 6 alsebl      A    21
#> # ... with 105 more rows

# Same as
group_by(x, status, sp) %>% 
  summarize(n = n()) %>% 
  filter(status == "A")
#> # A tibble: 111 x 3
#> # Groups:   status [1]
#>   status     sp     n
#>    <chr>  <chr> <int>
#> 1      A acaldi     5
#> 2      A alibed     2
#> 3      A alsebl    21
#> 4      A anaxpa     3
#> 5      A andiin     1
#> 6      A annoac     5
#> # ... with 105 more rows
…
