Demography • forestr
…
# Some data to play with
census1 <- forestr::bci12t6mini
census2 <- forestr::bci12t7mini

# Using the new wrapper `<FUNCTION>_df()` ---------------------------------

# A REALISTIC CASE

# Note `recruitment_df()` warns if some groups have dbh values full of NA
split_by_sp <- recruitment_df(census1, census2, split1 = census1$sp)
#> Warning in check_if_all_dbh_is_na(census1, census2, split = split1): At least one split-group contains all `dbh` values equal to NA.
#>   * Consider removing those groups before running this function.
split_by_sp
#> # A tibble: 1,152 x 3
#>    split metric  value
#>    <chr>  <chr>  <dbl>
#> 1 acaldi     N2 5.0000
#> 2 acaldi      R 2.0000
#> 3 acaldi   rate 0.1032
#> 4 acaldi  lower 0.0254
#> 5 acaldi  upper 0.3035
#> 6 acaldi   time 4.9483
#> # ... with 1,146 more rows

# Same for `mortality_df()`; let's explore a few species
# We don't need to be warned again (suppressing warnings)
all_species <- suppressWarnings(
  mortality_df(census1, census2, split1 = census1$sp)
)
few_species <- sample(unique(all_species$split), 5)
long_format <- subset(all_species, split %in% few_species)
long_format
#> # A tibble: 45 x 3
#>    split metric value
#>    <chr>  <chr> <dbl>
#> 1 aegipa      N     0
#> 2 aegipa      D     0
#> 3 aegipa   rate    NA
#> 4 aegipa  lower    NA
#> 5 aegipa  upper    NA
#> 6 aegipa   time    NA
#> # ... with 39 more rows
…
# Using the new wrapper `<FUNCTION>_df()` ---------------------------------

# A REALISTIC CASE

# Note `growth_df()` warns if some groups have dbh values full of NA
split_by_sp <- growth_df(census1, census2, split1 = census1$sp)
#> Warning in check_if_all_dbh_is_na(census1, census2, split = split1): At least one split-group contains all `dbh` values equal to NA.
#>   * Consider removing those groups before running this function.
split_by_sp
#> # A tibble: 1,008 x 3
#>    split  metric    value
#>    <chr>   <chr>    <dbl>
#> 1 acaldi    rate 7.09e-01
#> 2 acaldi       N 2.00e+00
#> 3 acaldi    clim 1.32e+00
#> 4 acaldi dbhmean 1.10e+01
#> 5 acaldi    time 4.95e+00
#> 6 acaldi   date1 1.67e+04
#> # ... with 1,002 more rows

# Same for `growth_df()`; let's explore a few species
# We don't need to be warned again (suppressing warnings)
all_species <- suppressWarnings(
  growth_df(census1, census2, split1 = census1$sp)
)
few_species <- sample(unique(all_species$split), 5)
long_format <- subset(all_species, split %in% few_species)
long_format
#> # A tibble: 35 x 3
#>    split  metric    value
#>    <chr>   <chr>    <dbl>
#> 1 ery2ma    rate 2.05e-01
#> 2 ery2ma       N 1.00e+00
#> 3 ery2ma    clim       NA
#> 4 ery2ma dbhmean 1.40e+01
#> 5 ery2ma    time 4.89e+00
#> 6 ery2ma   date1 1.66e+04
#> # ... with 29 more rows
…
