Biomass • forestr
…
Loading some useful data of stems from 1000 trees, selected randomly from Barro Colorado Island (data made public in 2012, available at https://goo.gl/GmrwVq; see also ?forestr::bci12s7mini).

# tibble has an informative print method
stem0 <- as_tibble(bci12s7mini)
stem0
#> # A tibble: 2,165 x 20
#>   treeID stemID    tag StemTag     sp quadrat    gx    gy MeasureID
#>    <int>  <int>  <chr>   <chr>  <chr>   <chr> <dbl> <dbl>     <int>
#> 1    858      1 000851         apeime    4402   899    42       766
#> 2   1083      1 001080    <NA> alchco    4314   873   284        NA
#> 3   1083      2 001080    <NA> alchco    4314   873   284        NA
#> 4   1083      3 001080    <NA> alchco    4314   873   284        NA
#> 5   1083      4 001080    <NA> alchco    4314   873   284        NA
#> 6   1083      5 001080    <NA> alchco    4314   873   284        NA
#> # ... with 2,159 more rows, and 11 more variables: CensusID <int>,
#> #   dbh <dbl>, pom <chr>, hom <dbl>, ExactDate <chr>, DFstatus <chr>,
#> #   codes <chr>, countPOM <dbl>, date <dbl>, status <chr>, agb <dbl>

Last thing first: summarising biomass accross individuals by groups

Here we focus on summarising biomass accross individuals by groups, not in the way to calculate the biomass of each individual. So we’ll just use the individuals’ biomass directly from the agb variable of a stem dataset from Barro Colorado Island. Apart from agb we’ll use a few more variables useful for calculating the by-groups summary.

# getting biomass as it comes out of the box from the analytical tables
stem0$biomass <- stem0$agb

# focusing only on a few variables we care about
stem1 <- select(stem0, 
  treeID, stemID, quadrat, status, sp, biomass, 
)
stem1
#> # A tibble: 2,165 x 6
#>   treeID stemID quadrat status     sp biomass
#>    <int>  <int>   <chr>  <chr>  <chr>   <dbl>
#> 1    858      1    4402      A apeime    3.24
#> 2   1083      1    4314      G alchco      NA
#> 3   1083      2    4314      G alchco      NA
#> 4   1083      3    4314      G alchco      NA
#> 5   1083      4    4314      G alchco      NA
#> 6   1083      5    4314      G alchco      NA
#> # ... with 2,159 more rows

Unfortunately, these data has no unique identifies. So let’s create one so we one so we can simplify the dataset without loosing information.

add_id <- function(x) {
  x$id <- paste0(x$treeID, "_", x$stemID)
  x
}
stem2 <- add_id(stem1)
stem2
#> # A tibble: 2,165 x 7
#>   treeID stemID quadrat status     sp biomass     id
#>    <int>  <int>   <chr>  <chr>  <chr>   <dbl>  <chr>
#> 1    858      1    4402      A apeime    3.24  858_1
#> 2   1083      1    4314      G alchco      NA 1083_1
#> 3   1083      2    4314      G alchco      NA 1083_2
#> 4   1083      3    4314      G alchco      NA 1083_3
#> 5   1083      4    4314      G alchco      NA 1083_4
#> 6   1083      5    4314      G alchco      NA 1083_5
#> # ... with 2,159 more rows

id has the information from treeID and stemID; so we can safely remove treeID and stemID. We’ll take the change to re-organize the variables to improve clarity.

# Removing redundant variables; also placing id first, and biomass last
stem3 <- select(stem2, id, quadrat, status, sp, biomass)
stem3
#> # A tibble: 2,165 x 5
#>       id quadrat status     sp biomass
#>    <chr>   <chr>  <chr>  <chr>   <dbl>
#> 1  858_1    4402      A apeime    3.24
#> 2 1083_1    4314      G alchco      NA
#> 3 1083_2    4314      G alchco      NA
#> 4 1083_3    4314      G alchco      NA
#> 5 1083_4    4314      G alchco      NA
#> 6 1083_5    4314      G alchco      NA
#> # ... with 2,159 more rows

A good way to summarize these data is to sum the biomass of all individuals in each species:

by_sp <- group_by(stem3, sp)
by_sp <- dplyr::summarize(by_sp, biomass = sum(biomass, na.rm = TRUE))

Or we may want to sumarize by summing the abundance of each species in each quadrat:

by_sp_quad <- group_by(stem3, sp, quadrat)
by_sp_quad <- summarize(by_sp_quad, biomass = sum(biomass, na.rm = TRUE))

Here are the first few species and quadrats which biomas is greater than cero:

filter(by_sp_quad, biomass > 0)
#> # A tibble: 529 x 3
#> # Groups:   sp [105]
#>       sp quadrat  biomass
#>    <chr>   <chr>    <dbl>
#> 1 acaldi    1522 6.15e-04
#> 2 acaldi    3523 2.88e-04
#> 3 acaldi    3805 1.19e-04
#> 4 acaldi    4716 1.92e-04
#> 5 acaldi    4719 8.24e-05
#> 6 alibed    1315 6.41e-04
#> # ... with 523 more rows
…
