Count number of individuals in total or by groups. — abundance â€¢ forestr
…
# Alternatives ----------------------------------------------------------

library(dplyr)

alive <- filter(stem, status == "A")

grouped <- group_by(alive, quadrat, sp)
summarise(grouped, n = n())
#> # A tibble: 568 x 3
#> # Groups:   quadrat [?]
#>    quadrat     sp     n
#>      <chr>  <chr> <int>
#>  1    0000 soroaf     1
#>  2    0002 hybapr     1
#>  3    0006 hybapr     2
#>  4    0009 faraoc     1
#>  5    0009 hybapr     1
#>  6    0020 tet2pa     1
#>  7    0022 sympgl     1
#>  8    0100 des2pa     1
#>  9    0100 psycho     1
#> 10    0101 ingafa     1
#> # ... with 558 more rows

# Or
count(alive, quadrat, sp)
#> # A tibble: 568 x 3
#>    quadrat     sp     n
#>      <chr>  <chr> <int>
#>  1    0000 soroaf     1
#>  2    0002 hybapr     1
#>  3    0006 hybapr     2
#>  4    0009 faraoc     1
#>  5    0009 hybapr     1
#>  6    0020 tet2pa     1
#>  7    0022 sympgl     1
#>  8    0100 des2pa     1
#>  9    0100 psycho     1
#> 10    0101 ingafa     1
#> # ... with 558 more rows
…
