Basal area of each individual. — basal_area • fgeo.abundance
…
# Add result to the original dataframe
stem$ba <- ba
# Same
stem <- mutate(stem, ba = basal_area(dbh))
# Reordering columns to show `ba` first
select(stem, ba, everything())
#> # A tibble: 77 x 20
#>        ba treeID stemID tag   StemTag sp     quadrat    gx    gy MeasureID
#>     <dbl>  <int>  <int> <chr> <chr>   <chr>  <chr>   <dbl> <dbl>     <int>
#>  1 18869.  10775  13496 1128  1128    PREMON 402      79.3  39.8     13496
#>  2 22167.  10863  13603 1129  1129    PREMON 402      79.0  36.5     13603
#>  3 10936.  23710  29640 14434 14434   PREMON 517      82.7 330.      29640
#>  4  1995.  25331  31937 16164 16164   SLOBER 402      70.8  21.0     31937
#>  5  2043.  63997  77760 75062 75062   CASARB 517      86.0 340.      77760
#>  6   254.  63997  77761 75062 75063   CASARB 517      86.0 340.      77761
#>  7   314.  63997  77762 75062 75064   CASARB 517      86.0 340.      77762
#>  8   398.  63997  77763 75062 75065   CASARB 517      86.0 340.      77763
#>  9   594.  63997  77764 75062 75066   CASARB 517      86.0 340.      77764
#> 10   113.  64070  77850 75147 75147   CASARB 517      99.8 325.      77850
#> # ... with 67 more rows, and 10 more variables: CensusID <int>, dbh <dbl>,
#> #   pom <chr>, hom <dbl>, ExactDate <dbl>, DFstatus <chr>, codes <chr>,
#> #   countPOM <dbl>, status <chr>, date <dbl>
…
