…
    Examples

library(dplyr)

stem <- bci12s7mini

# Giving grouping variables in a character string  -----------------------

# USING DPLYR (IF NEW TO DPLYR, THE SOURCE CODE MAY BE HARDER TO UNDERSTAND)

# Standard evaluation using the newest (tidy eval) approach.

n_dplyr_se(stem)
#> # A tibble: 111 x 3
#>   status     sp     n
#>    <chr>  <chr> <int>
#> 1      A acaldi     5
#> 2      A alibed     2
#> 3      A alsebl    21
#> 4      A anaxpa     3
#> 5      A andiin     1
#> 6      A annoac     5
#> # ... with 105 more rows

# Same:
n_dplyr_se(stem, groups = c("status", "sp"))
#> # A tibble: 111 x 3
#>   status     sp     n
#>    <chr>  <chr> <int>
#> 1      A acaldi     5
#> 2      A alibed     2
#> 3      A alsebl    21
#> 4      A anaxpa     3
#> 5      A andiin     1
#> 6      A annoac     5
#> # ... with 105 more rows

# NULL groups result in a tally.
n_dplyr_se(stem, groups = NULL)
#>     n
#> 1 665

# Count not only alive
n <- n_dplyr_se(stem, groups = c("status", "sp"), only_alive = FALSE)
arrange(n, sp)
#> # A tibble: 307 x 3
#>   status     sp     n
#>    <chr>  <chr> <int>
#> 1      A acaldi     5
#> 2      D acaldi    11
#> 3      G acaldi    11
#> 4      D aegipa     1
#> 5      D alchco     1
#> 6      G alchco    10
#> # ... with 301 more rows
…
# Giving grouping variables as bare names --------------------------------

# dplyr defaults to using bare variable names. 

n_dplyr(stem)
#> # A tibble: 1 x 1
#>       n
#>   <int>
#> 1   665

n_dplyr(stem, sp, only_alive = FALSE)
#> # A tibble: 144 x 2
#>       sp     n
#>    <chr> <int>
#> 1 acaldi    27
#> 2 aegipa     1
#> 3 alchco    11
#> 4 alibed     3
#> 5 allops     1
#> 6 alsebl    36
#> # ... with 138 more rows
…
