Count and basal area of neighboring stems. — neighbor • fgeo.abundance
…
    Warning

    This function has a pending issue by which a dataset with a single row does
not result in zero conspecific neighbors
(https://github.com/forestgeo/fgeo.abundance/issues/68).

    Examples

tree <- fgeo.data::luquillo_tree5_random
# Guess `plotdim`
count_neighbor(tree, r = 20)
#> Gessing: plotdim = c(320, 500)
#> Total elapsed time ~ 0.87 seconds 
#> # A tibble: 1,004 x 2
#>    conspecific heterospecific
#>          <dbl>          <dbl>
#>  1        1.23           6.15
#>  2        2              6   
#>  3        2              7   
#>  4        1              9   
#>  5        1              1   
#>  6        1             11   
#>  7        1              5   
#>  8        2              6   
#>  9        1              3   
#> 10        2              7   
#> # ... with 994 more rows

count_neighbor(tree, r = 20, plotdim = c(320, 500))
#> Total elapsed time ~ 0.53 seconds 
#> # A tibble: 1,004 x 2
#>    conspecific heterospecific
#>          <dbl>          <dbl>
#>  1        1.23           6.15
#>  2        2              6   
#>  3        2              7   
#>  4        1              9   
#>  5        1              1   
#>  6        1             11   
#>  7        1              5   
#>  8        2              6   
#>  9        1              3   
#> 10        2              7   
#> # ... with 994 more rows

basal_area_neighbor(tree, r = 20, plotdim = c(320, 500))
#> Total elapsed time ~ 0.55 seconds 
#> # A tibble: 1,004 x 2
#>    conspecific heterospecific
#>          <dbl>          <dbl>
#>  1      360.             614.
#>  2       14.3            602.
#>  3       17.8            485.
#>  4        8.55          1258.
#>  5      154.             172.
#>  6      475.             726.
#>  7      243.            3180.
#>  8      455.             200.
#>  9     2865.             412.
#> 10       68.5            386.
#> # ... with 994 more rows
…
