Recruitment and mortality — mortality â€¢ forestr
…
# Easier to view and filter when you split by some variable with many groups
# (note warning when some groups have dbh values full of NA)
recruitment_df(census1, census2, split1 = census1$sp)
#> Warning: At least one split-group contains all `dbh` values equal to NA.
#>   * Consider removing those groups before running this function.
#> # A tibble: 1,152 x 3
#>     split metric    value
#>     <chr>  <chr>    <dbl>
#>  1 acaldi     N2 5.00e+00
#>  2 acaldi      R 2.00e+00
#>  3 acaldi   rate 1.03e-01
#>  4 acaldi  lower 2.54e-02
#>  5 acaldi  upper 3.03e-01
#>  6 acaldi   time 4.95e+00
#>  7 acaldi  date1 1.66e+04
#>  8 acaldi  date2 1.85e+04
#>  9 aegipa     N2 0.00e+00
#> 10 aegipa      R 0.00e+00
#> # ... with 1,142 more rows

# Same for `mortality()`; lets explore a few species
(all_sp <- mortality_df(census1, census2, split1 = census1$sp))
#> Warning: At least one split-group contains all `dbh` values equal to NA.
#>   * Consider removing those groups before running this function.
#> # A tibble: 1,296 x 3
#>     split  metric    value
#>     <chr>   <chr>    <dbl>
#>  1 acaldi       N 3.00e+00
#>  2 acaldi       D 0.00e+00
#>  3 acaldi    rate 0.00e+00
#>  4 acaldi   lower 0.00e+00
#>  5 acaldi   upper 1.87e-01
#>  6 acaldi    time 4.94e+00
#>  7 acaldi   date1 1.66e+04
#>  8 acaldi   date2 1.84e+04
#>  9 acaldi dbhmean 1.30e+01
#> 10 aegipa       N 0.00e+00
#> # ... with 1,286 more rows
…
